Manipulação de texto com stringr
…
Problema n. 3: como filtrar dados com certos padrões no texto?

Para filtrar padrões de interesse em dados textuais podemos utilizar a função str_detect. Esta função retorna um valor lógico. Retorna TRUE para o caso do padrão ter sido detectado e retorna FALSE, caso contrário. No primeiro argumento, inserimos o vetor para o qual queremos detectar algum padrão. No segundo argumento, inserimos o padrão que desejamos detectar.

Ao usar essa função em conjunto com a função filter conseguimos filtrar padrões de interesse, uma vez que a função filter usa vetores lógicos para fazer filtros. Para o problema n. 3, vamos trabalhar com a coluna “pais”.

Suponha que desejamos encontrar todas as observações que possuem o padrão “ISR” na coluna “pais”. Assim, podemo fazer o seguinte:

df %>% 
  filter(str_detect(pais, "ISR"))

# A tibble: 21 x 2
   codigos pais      
   <chr>   <chr>     
 1 76440   Israel-ISR
 2 93664   Israel-ISR
 3 9837    Israel-ISR
 4 90423   Israel-ISR
 5 44035   Israel-ISR
 6 28313   Israel-ISR
 7 35031   Israel-ISR
 8 87829   Israel-ISR
 9 44097   Israel-ISR
10 26446   Israel-ISR
# ... with 11 more rows
…
